{
  "registry": {
    "scheme": "http",
    "host": "registry",
    "port": 8081,
    "adminUsername": "user_admin",
    "serviceUsername": "datastore_agent"
  },
  "elasticsearch": {
    "scheme": "http",
    "host": "elasticsearch",
    "port": 9200
  },
  "userCredentials": {
    "user_admin": "user_admin",
    "app_admin": "app_admin",
    "datastore_agent": "datastore_agent"
  },
  "registerUsers": {
    "tom": {
      "password": "tom",
      "privileges": "USER_ADMIN,CREATE_GROUP,CREATE_USER,CREATE_DEVICE,CREATE_DATASTREAM,CREATE_TRANSFORM,CREATE_TRANSFORMFUNCTION,CREATE_RESOURCE,CREATE_ENTITY,QUERY_STREAMS"
    },
    "bob": {
      "password": "bob",
      "privileges": "USER_ADMIN,CREATE_GROUP,CREATE_USER,CREATE_DEVICE,CREATE_DATASTREAM,CREATE_TRANSFORM,CREATE_TRANSFORMFUNCTION,CREATE_RESOURCE,CREATE_ENTITY,QUERY_STREAMS"
    }
  },
  "geometryTemplate": {
    "type": "Point",
    "coordinates": []
  },
  "geoFeaturesTemplate": {
    "type": "FeatureCollection",
    "features": [
      {
        "type": "Feature",
        "geometry": {
          "type": "Point",
          "coordinates": []
        },
        "properties": {
          "name": "Location",
          "default": true
        }
      }
    ]
  },
  "registerDevices": {
    "streamDefs": [
      {
        "key_suffix": "event",
        "name": "Camera events",
        "type": "uk.nominet.iot.model.timeseries.Event",
        "metadata": {
        }
      },
      {
        "key_suffix": "config",
        "name": "Camera configuration",
        "type": "uk.nominet.iot.model.timeseries.Json",
        "metadata": {
        },
        "push": [
          {
            "method":  "POST",
            "uri":  "http://mockserver:9876/upload",
            "uriParams":  {"foo":  "bar"},
            "headers":  {"fooz":  "barz"},
            "retrySequence": "1m 5m 30m"
          },
          {
            "method":  "POST",
            "uri":  "http://mockserver1:9877/upload",
            "uriParams":  {"foo":  "bar"},
            "headers":  {"fooz":  "barz"},
            "retrySequence": "1m 5m 30m"
          }
        ]
      },
      {
        "key_suffix": "report",
        "name": "Report",
        "type": "uk.nominet.iot.model.timeseries.Json",
        "metadata": {
        }
      },
      {
        "key_suffix": "images",
        "name": "Images",
        "type": "uk.nominet.iot.model.timeseries.Image",
        "metadata": {
        }
      }
    ]
  },
  "registerEntities": [
    {
      "owner": "tom",
      "group": "all_users",
      "key": "default.application",
      "name": "helloworldApplication",
      "type": "application"
    }
  ],
  "uploadResources": [
    {
      "user": "tom",
      "key": "default.application",
      "name": "device.default.location",
      "type": "configuration",
      "content_type": "application/json",
      "content": {
        "type": "Point",
        "coordinates": [
          -1.2580552697181702,
          51.75197359370183
        ]
      }
    },
    {
      "user": "tom",
      "key": "default.application",
      "name": "device.default.zoom",
      "type": "configuration",
      "content_type": "application/json",
      "content": {
        "zoom": 10
      }
    },
    {
      "user": "tom",
      "key": "default.application",
      "name": "alerts.default.location",
      "type": "configuration",
      "content_type": "application/json",
      "content": {
        "type": "Point",
        "coordinates": [
          -1.2580552697181702,
          51.75197359370183
        ]
      }
    },
    {
      "user": "tom",
      "key": "default.application",
      "name": "alerts.default.zoom",
      "type": "configuration",
      "content_type": "application/json",
      "content": {
        "zoom": 10
      }
    },
    {
      "user": "tom",
      "key": "default.application",
      "type": "mapIcon",
      "name": "icon.warning.high",
      "content_type": "image/png",
      "content": "file://environments/helloworld/img/alert.high.png"
    },
    {
      "user": "tom",
      "key": "default.application",
      "name": "icon.warning.mid",
      "type": "mapIcon",
      "content_type": "image/png",
      "content": "file://environments/helloworld/img/alert.mid.png"
    },
    {
      "user": "tom",
      "key": "default.application",
      "name": "icon.warning.low",
      "type": "mapIcon",
      "content_type": "image/png",
      "content": "file://environments/helloworld/img/alert.low.png"
    }
  ]
}