{
  "device": {
    "dynamic_templates": [
      {
        "doubles": {
          "mapping": {
            "type": "double"
          },
          "match_mapping_type": "long"
        }
      }
    ],
    "properties": {
      "location": {
        "type": "geo_shape",
        "tree": "quadtree",
        "precision": "1m"
      },
      "singlePosition": {
        "type": "geo_point"
      },
      "name": {
        "type": "string",
        "fields": {
          "keyword": {
            "type": "keyword"
          }
        }
      },
      "type": {
        "type": "string",
        "fields": {
          "keyword": {
            "type": "keyword"
          }
        }
      }
    }
  }
}