{
  "json": {
    "_parent": {
      "type": "stream"
    },
    "dynamic_templates": [
      {
        "doubles": {
          "mapping": {
            "type": "double"
          },
          "match_mapping_type": "long"
        }
      }
    ],
    "properties": {
      "timestamp": {
        "doc_values": true,
        "type": "date"
      },
      "value_json": {
        "type": "object"
      },
      "tags": {
        "type": "string",
        "index":"analyzed",
        "fields" : {
          "suggest" : {
            "type": "completion"
          }
        }
      }
    }
  }
}