<?xml version="1.0" encoding="UTF-8" standalone="no"?>
<svg
   xmlns:dc="http://purl.org/dc/elements/1.1/"
   xmlns:cc="http://creativecommons.org/ns#"
   xmlns:rdf="http://www.w3.org/1999/02/22-rdf-syntax-ns#"
   xmlns:svg="http://www.w3.org/2000/svg"
   xmlns="http://www.w3.org/2000/svg"
   xmlns:sodipodi="http://sodipodi.sourceforge.net/DTD/sodipodi-0.dtd"
   xmlns:inkscape="http://www.inkscape.org/namespaces/inkscape"
   width="500mm"
   height="400mm"
   viewBox="0 0 500 400"
   version="1.1"
   id="svg177"
   inkscape:version="1.0rc1 (09960d6, 2020-04-09)"
   sodipodi:docname="welcome.svg">
  <defs
     id="defs171">
    <rect
       x="12.85119"
       y="51.404762"
       width="403.67856"
       height="64.255951"
       id="rect458" />
    <rect
       id="rect30-9"
       height="58.208332"
       width="96.761902"
       y="36.285713"
       x="20.410713" />
    <rect
       id="rect239"
       height="58.208332"
       width="96.761902"
       y="36.285713"
       x="20.410713" />
    <rect
       x="20.410713"
       y="36.285713"
       width="229.80952"
       height="70.303566"
       id="rect30-4" />
    <rect
       x="20.410713"
       y="36.285713"
       width="229.80952"
       height="70.303566"
       id="rect242" />
    <rect
       id="rect30-9-1"
       height="58.208332"
       width="96.761902"
       y="36.285713"
       x="20.410713" />
    <rect
       id="rect418"
       height="58.208332"
       width="96.761902"
       y="36.285713"
       x="20.410713" />
    <rect
       x="20.410713"
       y="36.285713"
       width="229.80952"
       height="70.303566"
       id="rect30-4-8" />
    <rect
       x="20.410713"
       y="36.285713"
       width="229.80952"
       height="70.303566"
       id="rect421" />
    <rect
       id="rect30-4-8-2"
       height="70.303566"
       width="229.80952"
       y="36.285713"
       x="20.410713" />
    <rect
       id="rect556"
       height="70.303566"
       width="229.80952"
       y="36.285713"
       x="20.410713" />
  </defs>
  <sodipodi:namedview
     id="base"
     pagecolor="#ffffff"
     bordercolor="#666666"
     borderopacity="1.0"
     inkscape:pageopacity="0.0"
     inkscape:pageshadow="2"
     inkscape:zoom="0.35"
     inkscape:cx="722.85715"
     inkscape:cy="794.28571"
     inkscape:document-units="mm"
     inkscape:current-layer="layer1"
     inkscape:document-rotation="0"
     showgrid="false"
     inkscape:window-width="1252"
     inkscape:window-height="818"
     inkscape:window-x="115"
     inkscape:window-y="24"
     inkscape:window-maximized="0" />
  <metadata
     id="metadata174">
    <rdf:RDF>
      <cc:Work
         rdf:about="">
        <dc:format>image/svg+xml</dc:format>
        <dc:type
           rdf:resource="http://purl.org/dc/dcmitype/StillImage" />
        <dc:title></dc:title>
      </cc:Work>
    </rdf:RDF>
  </metadata>
  <g
     inkscape:label="Layer 1"
     inkscape:groupmode="layer"
     id="layer1">
    <text
       transform="translate(112.68974,129.83273)"
       style="font-style:normal;font-weight:normal;font-size:10.58329999999999949px;line-height:1.25;font-family:sans-serif;white-space:pre;shape-inside:url(#rect30-9-1);fill:#008080;fill-opacity:1;stroke:none;"
       id="text28-8"
       xml:space="preserve"><tspan
         sodipodi:role="line"
         x="20.410156"
         y="82.063995"><tspan
           style="font-style:normal;font-variant:normal;font-weight:normal;font-stretch:normal;font-size:50.8px;font-family:'Arial Rounded MT Bold';-inkscape-font-specification:'Arial Rounded MT Bold, ';fill:#008080">Io</tspan></tspan></text>
    <text
       xml:space="preserve"
       id="text28-1-3"
       style="font-style:normal;font-weight:normal;font-size:10.58329999999999949px;line-height:1.25;font-family:sans-serif;white-space:pre;shape-inside:url(#rect30-4-8);fill:#008080;fill-opacity:1;stroke:none;"
       transform="translate(150.98874,130.96248)"><tspan
         sodipodi:role="line"
         x="20.410156"
         y="82.063995"><tspan
           style="font-style:normal;font-variant:normal;font-weight:normal;font-stretch:normal;font-size:50.8px;font-family:'Arial Rounded MT Bold';-inkscape-font-specification:'Arial Rounded MT Bold, ';fill:#008080">T</tspan></tspan></text>
    <text
       xml:space="preserve"
       id="text456"
       style="font-style:normal;font-variant:normal;font-weight:normal;font-stretch:normal;font-size:25.39999999999999858px;line-height:1.25;font-family:'Arial Rounded MT Bold';-inkscape-font-specification:'Arial Rounded MT Bold, ';white-space:pre;shape-inside:url(#rect458);fill:#000000;fill-opacity:1;stroke:none;"
       transform="translate(142.11905,90.714285)"><tspan
         sodipodi:role="line"
         x="12.851562"
         y="74.293716"><tspan
           style="fill:#666666">Welcome to the</tspan><tspan> </tspan></tspan></text>
    <text
       transform="translate(186.66586,131.15355)"
       style="font-style:normal;font-weight:normal;font-size:10.58329999999999949px;line-height:1.25;font-family:sans-serif;white-space:pre;shape-inside:url(#rect30-4-8-2);fill:#808080;fill-opacity:1;stroke:none;"
       id="text28-1-3-2"
       xml:space="preserve"><tspan
         sodipodi:role="line"
         x="20.410156"
         y="82.063995"><tspan
           style="font-style:normal;font-variant:normal;font-weight:normal;font-stretch:normal;font-size:50.8px;font-family:'Arial Rounded MT Bold';-inkscape-font-specification:'Arial Rounded MT Bold, ';fill:#808080">TOOLS</tspan></tspan></text>
  </g>
</svg>
